; Engine configuration file.
; It's best edited using the editor UI and not directly,
; since the parameters that go here are not all obvious.
;
; Format:
;   [section] ; section goes between []
;   param=value ; assign values to parameters

config_version=5

[application]

config/name="FZ99"
run/main_scene="res://track_test.tscn"
config/features=PackedStringArray("4.3", "GL Compatibility")
run/max_fps=360
run/delta_smoothing=false
config/icon="res://icon.svg"

[autoload]

FZGlobal="*res://fz_global.gd"

[debug]

gdscript/warnings/untyped_declaration=1

[debug_draw_3d]

settings/3d/volumetric_defaults/thickness=0.25
settings/3d/volumetric_defaults/plane_size=100.0
settings/3d/add_bevel_to_volumetric_geometry=false

[display]

window/vsync/vsync_mode=0

[dotnet]

project/assembly_name="FZ99"

[editor_plugins]

enabled=PackedStringArray("res://addons/gx99_track_editing/plugin.cfg")

[input]

Accelerate={
"deadzone": 0.1,
"events": [Object(InputEventJoypadButton,"resource_local_to_scene":false,"resource_name":"","device":-1,"button_index":0,"pressure":0.0,"pressed":true,"script":null)
, Object(InputEventKey,"resource_local_to_scene":false,"resource_name":"","device":-1,"window_id":0,"alt_pressed":false,"shift_pressed":false,"ctrl_pressed":false,"meta_pressed":false,"pressed":false,"keycode":0,"physical_keycode":4194325,"key_label":0,"unicode":0,"location":0,"echo":false,"script":null)
]
}
Brake={
"deadzone": 0.1,
"events": [Object(InputEventJoypadButton,"resource_local_to_scene":false,"resource_name":"","device":-1,"button_index":2,"pressure":0.0,"pressed":true,"script":null)
, Object(InputEventKey,"resource_local_to_scene":false,"resource_name":"","device":-1,"window_id":0,"alt_pressed":false,"shift_pressed":false,"ctrl_pressed":false,"meta_pressed":false,"pressed":false,"keycode":0,"physical_keycode":4194326,"key_label":0,"unicode":0,"location":0,"echo":false,"script":null)
]
}
SteerLeft={
"deadzone": 0.1,
"events": [Object(InputEventJoypadMotion,"resource_local_to_scene":false,"resource_name":"","device":-1,"axis":0,"axis_value":-1.0,"script":null)
, Object(InputEventKey,"resource_local_to_scene":false,"resource_name":"","device":-1,"window_id":0,"alt_pressed":false,"shift_pressed":false,"ctrl_pressed":false,"meta_pressed":false,"pressed":false,"keycode":0,"physical_keycode":65,"key_label":0,"unicode":97,"location":0,"echo":false,"script":null)
]
}
SteerRight={
"deadzone": 0.1,
"events": [Object(InputEventJoypadMotion,"resource_local_to_scene":false,"resource_name":"","device":-1,"axis":0,"axis_value":1.0,"script":null)
, Object(InputEventKey,"resource_local_to_scene":false,"resource_name":"","device":-1,"window_id":0,"alt_pressed":false,"shift_pressed":false,"ctrl_pressed":false,"meta_pressed":false,"pressed":false,"keycode":0,"physical_keycode":68,"key_label":0,"unicode":100,"location":0,"echo":false,"script":null)
]
}
SteerUp={
"deadzone": 0.1,
"events": [Object(InputEventJoypadMotion,"resource_local_to_scene":false,"resource_name":"","device":-1,"axis":1,"axis_value":1.0,"script":null)
, Object(InputEventKey,"resource_local_to_scene":false,"resource_name":"","device":-1,"window_id":0,"alt_pressed":false,"shift_pressed":false,"ctrl_pressed":false,"meta_pressed":false,"pressed":false,"keycode":0,"physical_keycode":83,"key_label":0,"unicode":115,"location":0,"echo":false,"script":null)
]
}
SteerDown={
"deadzone": 0.1,
"events": [Object(InputEventJoypadMotion,"resource_local_to_scene":false,"resource_name":"","device":-1,"axis":1,"axis_value":-1.0,"script":null)
, Object(InputEventKey,"resource_local_to_scene":false,"resource_name":"","device":-1,"window_id":0,"alt_pressed":false,"shift_pressed":false,"ctrl_pressed":false,"meta_pressed":false,"pressed":false,"keycode":0,"physical_keycode":87,"key_label":0,"unicode":119,"location":0,"echo":false,"script":null)
]
}
StrafeLeft={
"deadzone": 0.1,
"events": [Object(InputEventJoypadMotion,"resource_local_to_scene":false,"resource_name":"","device":-1,"axis":4,"axis_value":1.0,"script":null)
, Object(InputEventJoypadButton,"resource_local_to_scene":false,"resource_name":"","device":-1,"button_index":9,"pressure":0.0,"pressed":false,"script":null)
, Object(InputEventMouseButton,"resource_local_to_scene":false,"resource_name":"","device":-1,"window_id":0,"alt_pressed":false,"shift_pressed":false,"ctrl_pressed":false,"meta_pressed":false,"button_mask":1,"position":Vector2(96, 12),"global_position":Vector2(100, 53),"factor":1.0,"button_index":1,"canceled":false,"pressed":true,"double_click":false,"script":null)
]
}
StrafeRight={
"deadzone": 0.1,
"events": [Object(InputEventJoypadMotion,"resource_local_to_scene":false,"resource_name":"","device":-1,"axis":5,"axis_value":1.0,"script":null)
, Object(InputEventJoypadButton,"resource_local_to_scene":false,"resource_name":"","device":-1,"button_index":10,"pressure":0.0,"pressed":false,"script":null)
, Object(InputEventMouseButton,"resource_local_to_scene":false,"resource_name":"","device":-1,"window_id":0,"alt_pressed":false,"shift_pressed":false,"ctrl_pressed":false,"meta_pressed":false,"button_mask":2,"position":Vector2(129, 21),"global_position":Vector2(133, 62),"factor":1.0,"button_index":2,"canceled":false,"pressed":true,"double_click":false,"script":null)
]
}
Boost={
"deadzone": 0.1,
"events": [Object(InputEventKey,"resource_local_to_scene":false,"resource_name":"","device":-1,"window_id":0,"alt_pressed":false,"shift_pressed":false,"ctrl_pressed":false,"meta_pressed":false,"pressed":false,"keycode":0,"physical_keycode":82,"key_label":0,"unicode":114,"location":0,"echo":false,"script":null)
, Object(InputEventJoypadButton,"resource_local_to_scene":false,"resource_name":"","device":-1,"button_index":1,"pressure":0.0,"pressed":true,"script":null)
]
}
SpinAttack={
"deadzone": 0.1,
"events": [Object(InputEventKey,"resource_local_to_scene":false,"resource_name":"","device":-1,"window_id":0,"alt_pressed":false,"shift_pressed":false,"ctrl_pressed":false,"meta_pressed":false,"pressed":false,"keycode":0,"physical_keycode":70,"key_label":0,"unicode":102,"location":0,"echo":false,"script":null)
, Object(InputEventJoypadButton,"resource_local_to_scene":false,"resource_name":"","device":-1,"button_index":2,"pressure":0.0,"pressed":true,"script":null)
, Object(InputEventJoypadButton,"resource_local_to_scene":false,"resource_name":"","device":-1,"button_index":10,"pressure":0.0,"pressed":true,"script":null)
]
}

[rendering]

renderer/rendering_method.mobile="gl_compatibility"

[shader_globals]

race_time_elapsed={
"type": "float",
"value": 18.04
}
